^C:\USERS\RYZEN 3600XT\DESKTOP\C++ CODIGOS\CONSOLEAPPLICATION1\CONSOLEAPPLICATION1\CONSOLEAPPLICATION1.CPP
C:\USERS\RYZEN 3600XT\DESKTOP\C++ CODIGOS\CONSOLEAPPLICATION1\CONSOLEAPPLICATION1\X64\DEBUG\VC142.PDB
C:\USERS\RYZEN 3600XT\DESKTOP\C++ CODIGOS\CONSOLEAPPLICATION1\CONSOLEAPPLICATION1\X64\DEBUG\VC142.IDB
C:\USERS\RYZEN 3600XT\DESKTOP\C++ CODIGOS\CONSOLEAPPLICATION1\CONSOLEAPPLICATION1\X64\DEBUG\CONSOLEAPPLICATION1.OBJ
